<?xml version="1.0" standalone="no"?>
<!DOCTYPE svg PUBLIC "-//W3C//DTD SVG 20010904//EN"
 "http://www.w3.org/TR/2001/REC-SVG-20010904/DTD/svg10.dtd">
<svg version="1.0" xmlns="http://www.w3.org/2000/svg"
 width="750.000000pt" height="750.000000pt" viewBox="0 0 750.000000 750.000000"
 preserveAspectRatio="xMidYMid meet">
<metadata>
Created by potrace 1.11, written by Peter Selinger 2001-2013
</metadata>
<g transform="translate(0.000000,750.000000) scale(0.100000,-0.100000)"
fill="#000000" stroke="none">
<path d="M0 5669 l0 -1831 48 34 c50 37 52 45 36 146 -4 24 -1 32 9 32 22 0
27 -23 20 -82 l-6 -52 24 15 c190 121 379 207 657 298 131 43 257 88 279 100
49 25 78 62 87 115 17 90 68 219 121 305 200 323 443 561 742 727 l92 51 -37
12 c-20 6 -124 36 -231 67 -107 30 -202 59 -212 64 -22 12 -61 78 -49 85 21
13 239 1 320 -18 47 -11 121 -20 165 -22 44 -1 88 -5 98 -10 9 -4 17 -4 17 -1
0 4 -13 12 -30 17 -17 6 -30 15 -30 20 0 4 -11 19 -25 32 -30 28 -26 50 14 67
25 10 34 7 108 -42 56 -37 83 -62 91 -84 16 -42 15 -54 -5 -54 -11 -1 -2 -9
20 -21 l38 -20 121 20 c66 12 138 21 160 21 39 0 40 1 33 27 -16 63 -5 159 30
278 35 119 36 121 102 188 37 37 72 67 78 67 6 0 35 16 65 36 93 61 139 84
181 89 38 5 40 4 28 -12 -10 -11 -10 -14 -1 -9 32 19 5 -14 -44 -54 -31 -25
-65 -58 -77 -74 -11 -16 -38 -45 -60 -64 -42 -39 -79 -96 -101 -160 -17 -47
-32 -246 -22 -286 6 -23 11 -26 51 -26 49 0 52 4 30 46 -23 45 -19 104 9 137
21 24 27 26 52 17 16 -6 44 -23 64 -38 28 -21 46 -27 100 -29 36 -1 81 -5 100
-8 19 -3 62 -8 95 -11 89 -8 104 -32 46 -72 -18 -13 -41 -30 -50 -39 -15 -15
-12 -16 33 -10 27 4 129 7 227 7 l179 0 -21 21 c-11 11 -27 35 -34 53 -14 34
-23 235 -11 254 5 8 0 11 -16 8 -13 -2 -22 -9 -21 -15 2 -6 -4 -11 -12 -11 -8
0 -15 -4 -15 -10 0 -15 -36 -12 -50 5 -10 12 -16 13 -28 3 -13 -11 -14 -11 -7
1 6 10 4 12 -6 6 -42 -27 -219 42 -219 86 0 5 6 9 14 9 7 0 34 18 58 40 53 46
85 60 136 60 20 0 56 7 79 15 57 20 314 11 349 -12 27 -17 34 -39 22 -71 -15
-44 22 -77 105 -92 123 -24 171 -85 172 -220 0 -90 -19 -131 -73 -159 -42 -22
-39 -24 53 -40 164 -28 501 -95 505 -100 9 -11 139 -35 148 -27 6 6 -13 25
-57 55 -53 38 -78 120 -33 107 10 -3 40 -7 67 -11 28 -3 58 -8 67 -11 13 -4
21 2 28 20 19 50 92 28 106 -32 9 -36 42 -82 59 -82 8 0 37 14 65 30 58 34 76
37 108 14 26 -18 28 -50 7 -81 -14 -19 0 -16 127 27 159 54 380 150 386 168 4
13 -195 208 -318 313 -180 153 -450 337 -726 495 -214 122 -291 161 -337 169
-20 4 -50 18 -68 31 -18 13 -41 24 -51 24 -10 0 -37 17 -61 39 -53 49 -162
103 -452 226 -126 53 -232 99 -234 101 -27 25 92 1 284 -58 55 -17 105 -31
110 -32 6 -2 47 -15 93 -29 94 -30 92 -30 92 -18 0 8 -96 67 -232 140 -77 42
-106 65 -91 74 12 7 87 16 184 23 68 4 94 2 125 -11 59 -26 156 -55 165 -49
11 6 79 -23 79 -34 0 -13 147 -82 267 -128 53 -19 149 -62 212 -94 64 -32 145
-70 179 -84 35 -15 99 -49 141 -76 43 -26 111 -65 151 -85 41 -20 108 -61 151
-90 42 -29 103 -62 134 -74 33 -12 67 -34 82 -52 15 -17 94 -85 176 -151 83
-66 171 -142 195 -170 25 -27 89 -85 142 -128 53 -43 109 -93 124 -111 l27
-31 247 -2 c231 -2 253 -4 348 -29 56 -14 128 -38 160 -53 35 -15 77 -26 104
-26 25 0 35 -3 23 -5 -34 -6 -28 -15 29 -48 29 -16 85 -62 125 -102 l73 -72 0
52 0 52 -89 70 c-49 38 -103 73 -122 78 -18 5 -53 25 -77 45 -66 54 -169 178
-175 211 -9 45 -190 249 -241 271 -49 21 -80 54 -135 141 -32 52 -41 76 -41
112 0 33 -10 64 -38 116 -58 110 -84 137 -148 158 -66 20 -94 54 -102 118 -3
35 1 53 22 89 30 51 33 92 12 175 -8 31 -14 107 -14 174 0 65 -2 121 -5 124
-3 3 -2 16 3 29 l10 24 -3180 0 -3180 0 0 -1831z m5430 1530 c0 -5 -7 -9 -15
-9 -15 0 -20 12 -9 23 8 8 24 -1 24 -14z m-143 -6 c3 -7 -7 -15 -22 -19 -28
-7 -45 -31 -45 -63 0 -29 -18 -58 -63 -103 -31 -30 -46 -38 -76 -38 -61 0
-121 68 -134 152 -6 41 -4 44 58 70 49 20 276 21 282 1z m-2451 -249 c17 -41
11 -73 -13 -70 -20 3 -31 29 -32 74 -1 44 26 42 45 -4z m148 -111 c27 -12 43
-14 68 -7 25 8 58 4 135 -13 111 -24 143 -37 143 -56 0 -7 -12 -18 -27 -25
-16 -6 -47 -27 -71 -47 -28 -22 -54 -35 -72 -35 -16 0 -54 -11 -84 -24 -30
-13 -56 -23 -58 -21 -2 2 -19 7 -38 10 -19 3 -36 10 -38 14 -2 5 -12 7 -22 4
-27 -7 -25 5 5 29 21 17 24 23 13 35 -7 8 -22 19 -34 24 -24 9 -64 81 -49 86
6 2 26 11 45 22 45 24 43 24 84 4z m-774 -193 c28 -15 18 -26 -27 -33 -51 -8
-106 4 -108 24 -2 13 9 16 56 18 33 1 68 -3 79 -9z m3680 -15 c16 -19 7 -92
-14 -113 -15 -16 -94 -41 -128 -42 -29 0 -58 37 -58 74 0 41 11 51 86 75 73
24 98 25 114 6z m-3094 -34 c-3 -5 6 -8 20 -8 14 0 33 -8 42 -17 15 -15 15
-17 0 -32 -14 -15 -20 -14 -69 10 -47 23 -51 27 -31 32 12 4 22 10 22 15 0 5
5 9 11 9 5 0 8 -4 5 -9z m-126 -71 c0 -5 -9 -10 -20 -10 -11 0 -20 5 -20 10 0
6 9 10 20 10 11 0 20 -4 20 -10z m-130 -335 c22 -20 18 -33 -30 -95 -29 -37
-61 -111 -65 -145 -1 -18 -9 -20 -65 -21 -34 -1 -77 3 -94 8 -17 5 -50 12 -73
15 -47 5 -63 -10 -63 -60 0 -16 -34 -18 -77 -5 -25 7 -39 21 -58 59 l-25 50
55 25 c31 13 66 24 80 24 13 0 27 5 30 10 3 6 16 10 27 10 12 0 42 19 69 43
63 56 67 59 119 85 54 28 138 26 170 -3z m683 -63 c26 -18 27 -19 9 -35 -10
-9 -26 -17 -35 -17 -9 0 -18 -4 -21 -9 -10 -16 -70 -8 -74 10 -4 22 43 69 70
69 13 0 35 -8 51 -18z m1647 -413 c0 -9 -68 -21 -80 -14 -6 3 -10 19 -10 35
l0 30 45 -22 c25 -12 45 -25 45 -29z m-3881 -101 c13 -36 35 -224 28 -243 -4
-9 -15 -15 -24 -13 -13 2 -20 28 -35 128 -10 69 -16 131 -13 138 7 20 35 14
44 -10z m-359 -15 c0 -5 9 -62 20 -128 20 -124 16 -150 -17 -129 -13 8 -21 37
-29 106 -16 122 -17 130 -15 146 1 13 41 17 41 5z m275 -94 c11 -52 26 -105
34 -118 19 -35 2 -47 -48 -33 -38 12 -39 13 -37 55 1 23 3 77 4 120 3 107 21
97 47 -24z m-124 -25 c11 -45 16 -89 12 -100 -8 -22 -43 130 -41 186 0 19 2
26 5 15 2 -11 13 -56 24 -101z m-731 -101 c14 -54 27 -83 36 -83 8 0 14 5 14
11 0 8 5 8 15 -1 8 -7 15 -19 15 -26 0 -8 10 -14 22 -14 22 0 22 0 2 -14 -17
-12 -80 -30 -108 -31 -5 0 -10 11 -12 25 -1 14 -7 54 -13 90 -13 81 -14 147
-2 135 5 -6 19 -47 31 -92z m9 -1228 c0 -5 -4 -3 -9 5 -5 8 -9 22 -9 30 0 16
17 -16 18 -35z"/>
<path d="M6566 7492 c19 -12 32 -45 84 -206 57 -176 109 -305 181 -447 47 -94
115 -209 124 -209 2 0 -9 28 -25 63 -34 71 -84 230 -106 330 -28 134 -13 140
36 15 78 -198 261 -522 341 -604 22 -22 47 -55 57 -72 22 -40 131 -171 151
-181 9 -5 33 -6 54 -4 l37 5 0 659 0 659 -472 0 c-260 0 -468 -4 -462 -8z"/>
<path d="M7098 6404 c42 -81 395 -479 400 -451 2 11 -24 47 -70 95 -40 42
-129 140 -197 217 -148 168 -146 165 -133 139z"/>
<path d="M5490 6166 c0 -3 55 -51 123 -108 67 -56 180 -159 251 -229 86 -84
135 -125 145 -121 11 4 -12 32 -80 96 -160 153 -439 383 -439 362z"/>
<path d="M4025 5853 c-31 -8 -65 -44 -65 -69 0 -32 36 -54 88 -54 74 0 113 36
91 83 -17 38 -60 53 -114 40z"/>
<path d="M6487 5721 l-28 -6 46 -45 c26 -25 63 -70 82 -100 42 -65 99 -136
164 -205 26 -27 68 -86 94 -130 27 -44 67 -107 90 -140 23 -33 52 -87 65 -119
13 -33 55 -112 93 -175 39 -64 79 -142 89 -173 11 -32 24 -58 28 -58 4 0 38
32 74 72 74 79 144 208 173 318 25 94 24 286 -1 363 -38 116 -142 235 -260
297 l-42 23 -114 -43 c-63 -24 -119 -47 -124 -52 -6 -4 -15 -8 -20 -8 -23 0
35 31 125 66 52 20 98 40 102 44 12 11 -94 49 -181 66 -75 14 -398 18 -455 5z
m312 -84 c52 -54 62 -70 52 -80 -10 -10 -27 3 -82 62 -62 67 -78 97 -46 89 7
-2 41 -33 76 -71z m246 -102 c-102 -48 -128 -56 -138 -46 -6 6 -9 11 -6 11 2
0 36 11 74 25 77 26 117 32 70 10z m104 -241 c24 -5 41 -20 71 -63 21 -31 49
-69 61 -84 12 -15 18 -31 15 -35 -4 -3 -46 -7 -94 -7 l-86 0 -37 50 c-87 113
-89 145 -11 145 27 0 64 -3 81 -6z"/>
<path d="M6056 5651 c-3 -5 22 -39 55 -77 137 -154 270 -334 379 -512 47 -77
83 -113 98 -98 10 11 -172 286 -280 423 -89 113 -229 273 -238 273 -5 0 -11
-4 -14 -9z"/>
<path d="M3412 5588 c2 -18 15 -27 53 -40 l50 -17 -95 -1 -95 0 49 -32 49 -32
156 23 c118 18 225 25 439 31 155 4 285 10 288 13 5 5 -69 29 -136 42 -19 4
-98 9 -175 10 -77 1 -153 8 -168 14 -18 7 -102 11 -223 11 l-195 0 3 -22z
m408 -48 c0 -5 -12 -10 -27 -9 -25 0 -26 1 -8 9 27 12 35 12 35 0z"/>
<path d="M2585 5573 c-60 -6 -61 -17 -6 -43 46 -21 54 -22 96 -10 33 9 44 17
41 27 -4 8 -6 19 -6 24 0 9 -46 10 -125 2z"/>
<path d="M2963 5548 c-24 -5 -43 -15 -43 -22 0 -14 96 -172 110 -181 6 -3 37
6 70 21 l61 27 -46 45 c-25 25 -45 50 -45 55 0 13 29 -9 71 -56 l37 -40 56 23
c31 13 56 28 56 34 0 28 -103 77 -162 78 -21 0 -36 4 -33 8 5 8 -45 21 -74 19
-9 -1 -35 -5 -58 -11z"/>
<path d="M2160 5466 c-88 -37 -160 -75 -235 -126 -203 -137 -496 -455 -590
-640 -13 -27 11 -7 102 81 236 229 481 402 776 549 l177 88 -76 32 c-41 17
-81 33 -87 35 -7 2 -37 -6 -67 -19z"/>
<path d="M2696 5482 c-5 -9 63 -46 71 -38 2 2 -2 13 -9 25 -13 21 -52 29 -62
13z"/>
<path d="M3915 5439 c-119 -14 -323 -57 -357 -75 -27 -14 -29 -19 -23 -52 4
-20 22 -75 42 -122 51 -126 63 -199 70 -442 3 -120 6 -218 7 -218 1 0 30 9 65
20 35 11 66 18 69 15 3 -2 -3 -7 -12 -11 -41 -16 -166 -204 -262 -397 -43 -85
-45 -94 -39 -146 9 -83 32 -144 64 -175 l29 -28 24 34 c23 30 94 134 206 298
25 36 76 105 114 153 38 49 68 91 65 93 -2 2 -39 -5 -83 -16 -43 -11 -82 -20
-86 -20 -5 0 -8 59 -8 130 0 96 3 132 13 134 6 2 113 27 237 55 166 38 230 57
245 72 l20 20 -25 -6 c-124 -29 -485 -103 -488 -100 -21 21 29 36 274 86 241
48 272 57 299 82 30 27 30 27 5 22 -14 -3 -148 -32 -298 -65 -150 -33 -275
-60 -277 -60 -3 0 -5 53 -5 118 l0 118 283 92 c155 51 298 92 318 92 38 0 153
-28 209 -52 l34 -14 96 79 c156 130 153 127 132 150 -39 45 -188 92 -382 122
-126 19 -463 28 -575 14z m295 -299 c-36 -11 -52 -11 -45 0 3 6 21 10 38 9 31
-1 31 -1 7 -9z"/>
<path d="M5120 5435 c-19 -7 -28 -14 -20 -14 8 0 29 6 45 14 39 17 21 18 -25
0z"/>
<path d="M4916 5403 c-11 -11 -6 -23 9 -23 8 0 15 4 15 9 0 13 -16 22 -24 14z"/>
<path d="M4974 5387 c-8 -21 2 -35 16 -21 5 5 6 15 0 24 -8 12 -10 12 -16 -3z"/>
<path d="M2400 5377 c-508 -227 -905 -540 -1149 -904 -66 -99 -87 -140 -78
-150 9 -9 144 15 176 31 14 8 82 55 151 106 173 128 424 295 620 413 91 54
166 100 168 102 1 1 -9 13 -23 27 -13 14 -33 45 -44 69 l-20 44 21 3 c12 2 59
-13 106 -34 l85 -38 63 34 64 34 0 73 c0 40 4 73 9 73 18 0 41 -44 41 -77 0
-18 3 -33 6 -33 3 0 37 16 76 36 l69 37 -58 37 c-90 56 -228 130 -244 129 -8
0 -25 -5 -39 -12z m-802 -804 c-3 -31 -34 -44 -44 -19 -9 24 3 46 26 46 17 0
21 -5 18 -27z"/>
<path d="M3200 5334 c0 -8 5 -12 10 -9 6 4 8 11 5 16 -9 14 -15 11 -15 -7z"/>
<path d="M2947 5319 c7 -7 15 -10 18 -7 3 3 -2 9 -12 12 -14 6 -15 5 -6 -5z"/>
<path d="M3140 5320 c0 -5 5 -10 11 -10 5 0 7 5 4 10 -3 6 -8 10 -11 10 -2 0
-4 -4 -4 -10z"/>
<path d="M5090 5314 c0 -8 5 -12 10 -9 6 3 10 10 10 16 0 5 -4 9 -10 9 -5 0
-10 -7 -10 -16z"/>
<path d="M3369 5309 c-49 -7 -195 -52 -206 -63 -3 -2 17 -19 44 -37 26 -18 51
-37 54 -42 9 -13 21 -89 15 -94 -3 -3 -43 29 -90 71 -47 42 -91 76 -97 76 -6
0 4 -12 23 -27 18 -14 63 -56 101 -92 59 -57 67 -70 67 -102 0 -36 1 -37 58
-53 31 -8 78 -19 104 -22 l47 -7 -5 134 c-8 186 -25 273 -53 268 -3 -1 -31 -5
-62 -10z"/>
<path d="M5146 5281 c-4 -5 -2 -12 3 -15 5 -4 12 -2 15 3 4 5 2 12 -3 15 -5 4
-12 2 -15 -3z"/>
<path d="M4923 5201 c-26 -21 -78 -70 -116 -108 l-68 -69 25 -23 25 -24 108
96 c59 52 116 104 126 115 18 19 18 20 -5 36 -32 23 -40 21 -95 -23z"/>
<path d="M6210 5220 c-8 -5 -29 -10 -45 -10 -26 0 -517 -97 -655 -129 -41 -9
-46 -8 -62 12 -9 12 -24 31 -32 42 -9 11 4 -20 28 -70 107 -222 149 -442 125
-648 -7 -56 -12 -114 -12 -129 0 -15 -3 -25 -8 -23 -4 3 -11 -9 -14 -27 -4
-18 -12 -39 -17 -45 -6 -7 -8 -13 -4 -13 11 0 -34 -81 -79 -145 -157 -219
-425 -384 -728 -446 -121 -25 -329 -30 -457 -12 -100 14 -314 23 -285 12 11
-4 56 -8 101 -8 117 -1 178 -11 160 -25 -8 -6 -16 -22 -18 -36 -4 -31 -32 -33
-36 -2 -3 18 -10 22 -38 22 -27 0 -34 -4 -34 -19 0 -10 -6 -24 -14 -30 -11 -9
-16 -6 -24 19 -13 36 -55 42 -72 10 -14 -26 -28 -25 -32 3 -3 19 -9 22 -48 23
-25 0 -55 6 -68 13 -19 10 -26 10 -39 -1 -9 -7 -89 -123 -179 -258 -258 -390
-370 -518 -739 -845 l-110 -98 -8 -101 c-4 -55 -8 -129 -8 -164 0 -34 -6 -68
-13 -75 -6 -6 -22 -48 -35 -92 -80 -283 -232 -536 -455 -759 -235 -234 -503
-392 -798 -471 -274 -73 -628 -75 -877 -5 -228 64 -429 214 -532 397 -35 62
-49 56 -49 -22 0 -36 3 -65 8 -65 4 0 22 4 40 9 46 13 40 -4 -8 -23 l-40 -16
0 -61 c0 -52 2 -60 16 -55 9 3 28 8 42 11 15 3 8 -2 -15 -11 l-43 -16 0 -419
0 -419 3750 0 3750 0 0 1260 0 1260 -30 0 c-16 0 -30 4 -30 9 0 5 14 14 30 21
l30 12 0 393 0 393 -39 -37 c-35 -32 -42 -49 -71 -152 -31 -116 -63 -185 -79
-175 -5 3 -31 -1 -57 -9 -27 -8 -57 -15 -67 -15 -41 0 -89 -33 -108 -74 -28
-60 -78 -126 -95 -126 -8 0 -24 -16 -35 -35 -17 -28 -24 -33 -35 -24 -7 6 -13
14 -12 17 0 4 0 46 -1 94 -1 64 -5 91 -17 102 -8 9 -20 14 -25 11 -5 -4 -14 5
-21 19 -12 28 -34 37 -24 11 3 -9 -34 24 -82 73 -74 76 -101 96 -182 135 -94
46 -230 88 -279 86 -26 -1 -26 -1 -3 -7 13 -4 -39 -7 -115 -7 -152 -1 -222
-14 -331 -65 -49 -23 -62 -34 -58 -47 2 -10 8 -37 11 -60 9 -57 -15 -59 -40
-3 -19 42 -24 46 -43 30 -7 -5 0 4 15 20 16 16 57 46 93 65 36 20 54 33 40 30
-35 -10 -107 -52 -157 -92 -41 -33 -43 -33 -43 -12 0 12 7 31 17 41 15 17 15
18 -1 18 -10 0 -25 -4 -34 -9 -10 -5 -37 -6 -62 -1 -28 5 -50 4 -57 -2 -21
-17 -47 7 -47 43 -1 25 -6 35 -20 37 -16 3 -18 -1 -13 -35 16 -102 16 -103 -4
-103 -10 0 -19 4 -19 10 0 5 -21 49 -47 97 -76 138 -223 270 -273 243 -15 -8
-19 -17 -14 -32 5 -17 3 -20 -11 -14 -18 7 -60 -31 -172 -156 -37 -42 -59 -58
-77 -58 -15 0 -30 -8 -36 -20 -6 -11 -21 -20 -35 -20 -24 0 -55 -23 -55 -41 0
-5 -16 -9 -35 -9 -33 0 -35 2 -35 36 0 33 3 37 56 61 46 21 65 24 108 20 28
-4 56 -3 61 1 24 17 87 130 65 117 -13 -8 -76 30 -84 50 -6 16 7 19 64 15 19
-1 41 -7 49 -13 10 -9 16 -7 27 8 8 10 14 26 14 35 0 9 11 22 25 28 51 24 28
41 -89 67 -110 24 -323 17 -416 -15 -128 -44 -244 -116 -238 -148 5 -29 47
-26 92 5 63 45 75 49 29 8 -24 -20 -43 -41 -43 -45 0 -5 54 -37 120 -71 66
-34 119 -64 116 -66 -2 -2 -60 16 -129 42 -69 25 -133 45 -141 45 -26 0 -59
-79 -64 -154 -4 -52 -7 -64 -15 -51 -5 10 -7 45 -3 81 4 41 3 64 -4 64 -5 0
-10 5 -10 11 0 6 7 9 15 5 18 -6 45 30 45 61 0 29 -39 32 -63 5 -28 -31 -57
-108 -63 -171 -4 -34 -10 -61 -15 -61 -4 0 -14 -3 -22 -6 -21 -8 -29 50 -17
117 22 116 87 209 199 283 99 66 176 92 311 106 98 9 227 33 305 55 15 4 24
-2 36 -22 12 -22 34 -34 97 -56 101 -34 201 -93 270 -160 28 -28 53 -47 53
-42 1 6 2 19 3 29 1 26 20 31 40 10 12 -12 27 -15 51 -11 23 4 38 1 46 -9 13
-16 42 -18 69 -4 13 7 28 6 52 -4 36 -14 58 -11 71 11 6 9 19 11 47 7 32 -5
40 -3 49 15 10 18 18 20 50 15 33 -5 41 -3 51 15 9 18 17 21 44 15 28 -5 36
-2 49 17 9 12 29 24 44 25 15 2 36 13 47 26 10 13 25 22 33 20 26 -6 83 -68
83 -90 0 -12 10 -27 23 -33 12 -7 34 -25 49 -41 14 -15 33 -28 42 -28 9 0 16
-8 16 -20 0 -14 11 -22 43 -31 125 -33 226 -76 296 -127 68 -50 151 -126 157
-144 3 -10 10 -18 15 -18 10 0 9 110 -2 125 -4 6 -9 21 -11 35 -4 30 -46 41
-60 16 -14 -24 -31 -20 -18 4 8 15 8 21 -2 24 -7 2 -28 9 -46 15 -27 8 -34 7
-39 -4 -3 -8 -10 -15 -15 -15 -6 0 -5 7 2 15 15 18 16 17 -40 39 -127 50 -284
185 -332 286 -77 164 -51 298 81 423 34 32 61 52 61 46 0 -8 9 -4 23 7 50 44
140 67 175 45 10 -6 4 -10 -19 -15 -33 -6 -147 -73 -186 -109 -13 -11 -23 -29
-23 -40 0 -40 89 -135 149 -161 63 -26 161 -53 161 -45 0 5 -4 9 -9 9 -5 0
-13 10 -16 21 -9 27 17 54 41 45 14 -5 16 -15 11 -58 -7 -54 -14 -69 -25 -53
-4 6 -27 11 -51 12 -58 3 -191 67 -253 122 -25 22 -50 41 -55 41 -14 0 -33
-47 -33 -81 0 -22 9 -38 31 -57 17 -15 50 -56 74 -92 50 -77 89 -120 108 -120
7 0 36 12 64 26 59 29 129 30 146 3 8 -12 -8 -33 -78 -101 l-89 -85 26 -17
c24 -16 31 -16 80 -3 29 8 62 18 73 22 18 7 18 6 5 -8 -8 -8 -30 -19 -48 -24
-17 -4 -33 -12 -35 -17 -3 -12 110 -55 145 -55 20 -1 26 3 22 13 -3 8 -7 138
-8 288 -2 207 -6 298 -20 378 -26 157 -57 305 -66 319 -5 10 -23 9 -81 -3 -41
-8 -102 -18 -137 -22 -34 -4 -66 -12 -70 -19 -6 -10 -20 -10 -72 1 -36 7 -85
14 -110 14 -25 0 -91 13 -148 29 -116 32 -142 51 -188 134 -26 46 -29 62 -29
142 0 50 4 107 9 128 l8 37 -53 22 c-30 12 -96 43 -148 70 -51 26 -99 48 -107
48 -7 0 -18 19 -24 43 -6 23 -20 66 -31 96 -11 30 -16 58 -12 62 4 4 42 14 83
23 41 8 118 24 170 36 52 11 142 30 200 40 176 33 160 33 155 2 -3 -15 -9 -54
-15 -86 -14 -82 -7 -88 76 -60 37 12 98 25 136 29 37 4 68 10 68 13 0 9 -164
252 -170 252 -3 0 -12 -5 -20 -10z m14 -48 c3 -5 -102 -30 -232 -56 -130 -26
-286 -58 -347 -71 -116 -25 -155 -30 -155 -17 0 8 654 148 712 151 9 1 19 -3
22 -7z m-529 -641 c-16 -10 -46 -35 -64 -55 -19 -20 -40 -36 -45 -36 -17 1
107 110 124 110 8 0 2 -9 -15 -19z m0 -231 c3 -5 1 -10 -4 -10 -6 0 -11 5 -11
10 0 6 2 10 4 10 3 0 8 -4 11 -10z m80 -31 c30 -11 55 -24 55 -29 0 -5 -27
-35 -61 -66 -36 -35 -63 -70 -66 -86 -6 -28 -23 -35 -57 -22 -24 9 -19 30 12
52 15 11 38 41 52 66 21 40 23 50 13 76 -6 16 -10 30 -8 30 3 0 29 -9 60 -21z
m192 -91 c-2 -13 -4 -5 -4 17 -1 22 1 32 4 23 2 -10 2 -28 0 -40z m194 -187
c29 -77 23 -183 -14 -265 -45 -98 -158 -195 -277 -238 -134 -48 -154 -51 -290
-52 -170 -1 -275 22 -415 90 -71 34 -166 100 -172 120 -2 5 20 21 48 33 89 41
191 116 282 209 79 81 91 90 133 96 25 3 50 3 56 0 5 -4 6 -52 2 -123 -6 -105
-5 -119 10 -124 21 -8 149 34 147 48 0 6 -19 11 -42 13 l-41 3 7 72 c4 40 11
80 16 90 16 30 59 18 112 -31 21 -20 30 -23 39 -14 10 10 8 22 -10 55 -32 60
-30 77 6 58 44 -23 91 -39 132 -46 116 -16 130 -26 130 -84 0 -48 -11 -57 -82
-65 -32 -4 -60 -11 -63 -15 -12 -20 119 -95 155 -89 27 4 80 99 80 144 0 47
-36 141 -75 195 l-34 48 22 16 c21 16 24 14 69 -36 28 -30 57 -77 69 -108z
m-204 117 c-3 -7 -5 -2 -5 12 0 14 2 19 5 13 2 -7 2 -19 0 -25z m-1647 -562
c0 -21 -21 -31 -31 -15 -14 22 -11 29 11 29 11 0 20 -6 20 -14z m-243 -178
c23 -29 22 -58 -3 -85 -13 -14 -24 -32 -24 -39 0 -10 -16 -14 -59 -14 -33 0
-62 3 -64 8 -8 11 17 97 33 117 35 42 89 48 117 13z m1094 -9 c47 -24 81 -55
114 -99 36 -49 55 -100 36 -100 -6 0 -11 -12 -11 -26 0 -21 -8 -11 -35 43 -35
71 -80 125 -150 181 -39 32 -39 32 -9 23 17 -5 42 -15 55 -22z m-64 -58 c38
-27 73 -67 73 -82 0 -6 -79 12 -110 25 -8 4 -23 18 -33 32 -15 20 -16 28 -7
39 18 21 32 19 77 -14z m1240 -77 c-3 -3 -12 -4 -19 -1 -8 3 -5 6 6 6 11 1 17
-2 13 -5z m40 -10 c-3 -3 -12 -4 -19 -1 -8 3 -5 6 6 6 11 1 17 -2 13 -5z
m-272 -74 c-11 -5 -38 -8 -60 -8 l-40 1 35 7 c19 4 46 8 60 8 23 1 23 0 5 -8z
m565 -77 c0 -4 -5 -2 -12 5 -7 7 -37 12 -68 12 -122 0 -229 -35 -313 -102 -55
-44 -56 -28 -1 21 64 56 135 89 227 103 42 6 77 15 77 20 0 5 20 -5 45 -22 25
-17 45 -34 45 -37z m-2833 -23 c14 -11 33 -20 43 -20 9 0 27 -11 40 -25 13
-14 29 -25 36 -25 18 0 39 -29 28 -40 -6 -6 -27 3 -56 23 -25 18 -64 41 -87
52 -27 12 -41 25 -41 37 0 23 6 23 37 -2z m2883 -15 c13 -14 21 -25 18 -25 -2
0 -15 11 -28 25 -13 14 -21 25 -18 25 2 0 15 -11 28 -25z m-2700 -20 c0 -14 6
-28 14 -31 8 -3 12 -13 9 -25 -6 -22 -23 -26 -23 -4 0 8 -9 20 -20 27 -23 15
-25 29 -8 46 19 19 28 14 28 -13z m-140 -40 c0 -3 -14 2 -30 10 -17 9 -35 13
-40 10 -6 -3 -10 1 -10 10 0 13 5 13 40 -5 22 -11 40 -23 40 -25z m1462 30
c132 -15 351 -55 344 -62 -2 -2 -42 2 -88 11 -324 58 -626 65 -978 20 -215
-27 -556 -131 -749 -228 -29 -15 -56 -25 -59 -22 -10 11 222 114 358 159 190
63 427 113 615 130 108 10 451 5 557 -8z m1438 -45 c30 -43 18 -37 -16 7 -15
20 -23 33 -16 29 6 -3 21 -20 32 -36z m-1777 -18 c-7 -4 -11 -21 -10 -37 2
-29 5 -30 69 -40 78 -12 94 -22 49 -31 -17 -4 -34 -11 -37 -15 -7 -12 -51 -11
-59 0 -8 13 -89 25 -120 17 -23 -6 -25 -11 -25 -62 l0 -55 38 6 c87 15 206 68
255 113 15 14 27 21 27 15 0 -16 -98 -80 -165 -107 -82 -33 -200 -50 -293 -43
-86 7 -234 46 -282 76 -37 22 -40 20 88 47 50 11 82 22 82 30 0 7 3 19 6 28 4
11 0 16 -12 17 -18 0 -17 1 1 9 28 12 83 12 90 0 3 -5 2 -10 -3 -10 -5 0 -12
-9 -15 -20 -5 -18 0 -20 41 -20 63 0 92 9 92 28 0 9 12 27 27 39 22 19 37 23
97 23 39 0 66 -4 59 -8z m366 -22 c29 -16 40 -28 43 -50 4 -27 2 -30 -25 -30
-22 0 -45 -15 -93 -59 -223 -209 -641 -242 -938 -74 -65 37 -71 39 -104 27
-20 -6 -41 -19 -48 -28 -8 -11 -14 -13 -19 -7 -3 6 -12 11 -19 11 -10 0 -14
-19 -15 -67 -1 -74 -12 -125 -27 -130 -5 -2 -8 37 -7 94 l1 98 39 42 c30 32
53 46 94 57 46 12 56 12 65 0 6 -8 26 -14 45 -15 l34 -1 -29 -12 -29 -13 24
-16 c39 -26 129 -62 204 -83 56 -15 102 -19 230 -18 152 0 164 2 246 30 102
36 261 136 252 159 -3 8 -15 15 -27 16 l-21 0 21 9 c27 11 37 57 15 70 -34 20
48 10 88 -10z m358 14 c-3 -3 -12 -4 -19 -1 -8 3 -5 6 6 6 11 1 17 -2 13 -5z
m98 -24 c33 -11 44 -17 25 -13 -47 8 -119 31 -100 32 8 0 42 -8 75 -19z m165
-51 c27 -15 -11 -10 -45 6 l-30 14 30 -6 c17 -3 37 -9 45 -14z m745 -26 c-4
-21 -7 -72 -6 -113 1 -94 -7 -110 -43 -86 -23 15 -26 23 -25 69 1 29 -1 61 -5
72 -5 16 2 29 30 58 47 47 58 47 49 0z m-665 -5 c10 -6 7 -7 -10 -2 -14 3 -32
11 -40 16 -10 6 -7 7 10 2 14 -3 32 -11 40 -16z m-532 -36 c2 -7 -3 -12 -12
-12 -9 0 -16 7 -16 16 0 17 22 14 28 -4z m33 -77 c17 -30 34 -55 38 -55 4 0
13 -17 21 -37 8 -21 16 -41 18 -45 2 -5 -3 -8 -10 -8 -32 0 -97 97 -113 168
-10 50 11 39 46 -23z m-71 -16 c0 -5 -4 -9 -10 -9 -5 0 -10 7 -10 16 0 8 5 12
10 9 6 -3 10 -10 10 -16z m868 2 c17 -7 32 -17 32 -22 0 -5 -18 0 -40 11 -22
11 -40 23 -40 26 0 3 3 4 8 2 4 -3 22 -10 40 -17z m-2288 -57 c0 -20 -5 -24
-27 -24 -28 0 -62 15 -53 23 14 13 66 34 72 30 5 -2 8 -15 8 -29z m1457 -19
c7 -20 -2 -29 -21 -22 -9 4 -13 13 -10 22 8 19 23 19 31 0z m-427 -25 c0 -5
-7 -10 -15 -10 -8 0 -15 5 -15 10 0 6 7 10 15 10 8 0 15 -4 15 -10z m-560 -10
c0 -5 -5 -10 -11 -10 -5 0 -7 5 -4 10 3 6 8 10 11 10 2 0 4 -4 4 -10z m450
-20 c0 -5 -7 -10 -15 -10 -8 0 -15 5 -15 10 0 6 7 10 15 10 8 0 15 -4 15 -10z
m1658 -2 c14 -14 16 -48 2 -48 -19 0 -60 24 -60 35 0 26 37 34 58 13z m-2285
-51 c24 -47 26 -56 15 -85 -12 -31 -10 -39 24 -105 21 -39 36 -73 34 -75 -2
-2 -25 12 -50 32 -25 19 -54 37 -65 41 -13 4 -20 19 -25 53 -3 26 -17 66 -30
89 l-25 43 37 30 c20 16 41 30 47 30 5 0 22 -24 38 -53z m287 49 c0 -11 -19
-15 -25 -6 -3 5 1 10 9 10 9 0 16 -2 16 -4z m230 -11 c0 -8 -7 -15 -15 -15 -8
0 -15 7 -15 15 0 8 7 15 15 15 8 0 15 -7 15 -15z m-120 -5 c0 -5 -7 -10 -15
-10 -8 0 -15 5 -15 10 0 6 7 10 15 10 8 0 15 -4 15 -10z m-46 -35 c3 -8 12
-15 19 -15 8 0 20 7 27 15 18 22 57 19 70 -5 12 -22 4 -106 -10 -115 -5 -3
-21 1 -37 9 -15 8 -41 18 -58 23 -23 6 -31 15 -33 38 -2 17 -11 38 -19 48 -15
16 -14 17 9 17 14 0 28 -7 32 -15z m1151 -25 c-16 -4 -43 -8 -60 -8 -25 -1
-27 1 -10 8 11 5 38 8 60 8 38 0 39 -1 10 -8z m585 -60 c0 -5 -2 -10 -4 -10
-3 0 -8 5 -11 10 -3 6 -1 10 4 10 6 0 11 -4 11 -10z m-2338 -127 c49 -43 83
-83 83 -97 0 -5 -30 -28 -67 -50 -37 -23 -79 -53 -95 -67 -15 -15 -39 -32 -52
-39 -22 -11 -27 -10 -53 21 -16 19 -36 47 -45 63 -15 29 -15 31 8 49 74 58
129 110 129 121 0 16 21 36 37 36 7 0 32 -17 55 -37z m-918 -65 c-4 -7 -22
-35 -39 -63 -35 -55 -75 -146 -75 -168 0 -8 -9 -26 -20 -39 -10 -14 -17 -28
-14 -30 2 -3 -4 -25 -14 -49 -10 -24 -24 -66 -31 -93 -10 -43 -10 -51 6 -68
17 -18 16 -22 -24 -101 -46 -91 -59 -153 -72 -342 -8 -101 -13 -128 -36 -172
-37 -71 -47 -79 -86 -62 -38 15 -89 91 -89 132 0 17 -8 35 -17 42 -16 12 -15
16 10 52 24 35 27 48 27 120 0 69 5 95 35 172 19 49 35 97 35 105 0 47 70 186
166 331 19 28 78 95 132 148 91 89 125 116 106 85z m3038 -88 c39 -11 112 -83
105 -103 -2 -7 -13 -12 -25 -11 -14 0 -23 -7 -27 -23 -4 -18 -12 -23 -35 -23
-22 0 -28 4 -24 15 4 8 1 15 -5 15 -16 0 -131 103 -131 118 0 21 84 28 142 12z
m-922 -54 c85 -22 120 -36 120 -48 0 -19 -83 -43 -265 -75 -30 -5 -34 -8 -17
-11 22 -3 40 -27 29 -38 -6 -6 -49 14 -57 27 -8 12 -60 14 -127 5 -64 -8 -72
-13 -52 -33 19 -19 -67 -38 -100 -23 -14 7 -61 14 -103 17 -65 5 -80 9 -92 27
-13 21 -11 24 39 58 57 39 131 69 240 99 87 24 284 21 385 -5z m325 -136 c-3
-5 -11 -10 -16 -10 -6 0 -7 5 -4 10 3 6 11 10 16 10 6 0 7 -4 4 -10z m-291 -8
c2 -4 2 -13 -2 -18 -9 -13 -54 -44 -64 -44 -9 0 -10 32 -2 54 6 17 59 23 68 8z
m1019 -6 c9 -7 17 -21 17 -30 0 -14 -3 -15 -22 -5 -23 12 -38 28 -38 42 0 11
23 8 43 -7z m-283 -9 c0 -24 -31 -57 -103 -110 -91 -67 -185 -126 -266 -166
l-63 -33 20 29 c57 78 236 218 345 269 60 27 67 29 67 11z m-2360 0 c0 -1 -9
-20 -20 -42 -11 -22 -20 -48 -20 -60 0 -26 -10 -39 -38 -54 -52 -28 -52 19 1
107 23 38 37 52 54 52 13 0 23 -1 23 -3z m1874 -77 c31 -11 25 -40 -9 -40 -21
0 -42 17 -60 49 -8 15 15 12 69 -9z m654 -67 l21 -18 -22 -107 c-21 -106 -31
-124 -62 -112 -11 5 -12 10 -6 18 6 7 12 39 13 72 3 51 1 59 -14 58 -11 -1
-18 5 -18 17 0 10 8 22 18 28 14 8 15 12 5 22 -36 37 25 56 65 22z m69 -165
c-2 -13 -4 -5 -4 17 -1 22 1 32 4 23 2 -10 2 -28 0 -40z m-1042 13 c33 -13 79
-29 103 -38 23 -8 42 -19 42 -23 0 -4 13 -13 30 -20 34 -14 69 -69 99 -155 24
-69 26 -117 7 -171 -7 -22 -17 -59 -21 -82 -8 -48 -35 -81 -111 -134 -37 -26
-52 -45 -62 -76 -12 -35 -19 -43 -50 -52 -21 -5 -45 -10 -54 -10 -10 0 -25 -9
-35 -19 -65 -70 -153 -49 -153 38 0 26 -7 43 -22 58 -29 25 -154 93 -173 93
-33 0 -85 44 -116 98 -78 138 -70 282 21 385 14 16 30 43 36 60 7 20 18 32 30
33 41 3 136 24 152 34 29 18 209 6 277 -19z m-1945 -71 c0 -66 -12 -105 -42
-137 -33 -35 -66 -30 -84 12 -7 19 -14 44 -14 56 0 27 114 144 129 134 6 -3
11 -33 11 -65z m2826 43 c-10 -10 -19 5 -10 18 6 11 8 11 12 0 2 -7 1 -15 -2
-18z m-1566 -68 c0 -67 -13 -76 -114 -80 -39 -2 -90 -8 -113 -15 -56 -17 -75
-9 -71 32 3 30 7 33 61 49 32 10 73 24 92 33 18 9 44 16 57 17 12 0 32 4 43 9
40 17 45 12 45 -45z m1565 15 c-3 -5 -11 -10 -16 -10 -6 0 -7 5 -4 10 3 6 11
10 16 10 6 0 7 -4 4 -10z m-2227 -102 c-11 -62 -28 -78 -80 -78 -48 0 -50 18
-9 82 22 34 37 47 58 50 15 2 31 3 34 1 4 -1 2 -26 -3 -55z m712 -312 c0 -47
-6 -58 -37 -75 -45 -23 -61 -15 -69 35 -7 49 -4 55 39 77 46 24 67 12 67 -37z
m-1646 18 c7 -18 -10 -44 -28 -44 -6 0 -18 5 -26 10 -13 9 -12 13 9 30 28 24
37 25 45 4z m693 -23 c8 -16 8 -31 2 -42 -5 -10 -9 -26 -9 -37 0 -29 -26 -48
-45 -32 -19 16 -38 86 -31 115 8 33 65 30 83 -4z m1882 -67 c16 -37 9 -39 -11
-3 -9 16 -14 29 -9 29 4 0 13 -12 20 -26z m-1025 -60 c22 -8 20 -47 -3 -68
-23 -21 -49 -12 -57 20 -12 46 13 66 60 48z m1115 -64 c0 -22 -2 -21 -14 10
-18 47 -18 58 0 34 8 -10 14 -30 14 -44z m-5559 -60 c0 -5 -5 -10 -11 -10 -5
0 -7 5 -4 10 3 6 8 10 11 10 2 0 4 -4 4 -10z m7150 -100 c0 -6 -8 -25 -17 -43
-16 -29 -18 -30 -21 -10 -2 12 2 31 8 42 11 22 30 28 30 11z m-180 -61 c0 -11
4 -18 9 -14 5 3 13 -4 16 -16 5 -16 1 -27 -18 -43 l-25 -21 19 -47 c12 -30 15
-49 8 -53 -5 -4 -9 -14 -8 -23 3 -30 -25 -112 -38 -112 -7 0 -13 -4 -13 -9 0
-5 -7 -16 -15 -25 -12 -12 -21 -13 -39 -4 -36 16 -51 93 -21 104 17 7 21 34 5
34 -5 0 -10 8 -10 17 0 12 3 14 11 6 17 -17 72 14 64 36 -4 9 -9 28 -12 44 -7
35 -17 41 -37 21 -13 -13 -34 -19 -78 -23 -4 -1 -4 -8 -1 -18 4 -11 3 -14 -5
-9 -7 4 -12 12 -12 18 0 6 -7 19 -15 28 -9 10 -13 23 -10 31 9 23 77 66 130
82 72 22 95 21 95 -4z m-130 -164 c0 -8 -2 -15 -4 -15 -2 0 -6 7 -10 15 -3 8
-1 15 4 15 6 0 10 -7 10 -15z m-3665 -345 c3 -6 -1 -7 -9 -4 -18 7 -21 14 -7
14 6 0 13 -4 16 -10z"/>
<path d="M5240 3790 c0 -6 12 -28 26 -50 19 -28 34 -40 50 -40 37 0 30 34 -15
69 -40 32 -61 39 -61 21z"/>
<path d="M5716 3742 l-69 -37 -138 0 c-76 0 -139 -2 -141 -5 -2 -3 -25 -37
-50 -76 -34 -53 -44 -74 -35 -83 20 -20 36 -11 79 45 38 51 44 55 72 50 17 -4
49 -9 71 -12 22 -3 54 -13 71 -21 27 -14 40 -14 94 -4 61 12 99 27 111 44 14
20 79 18 125 -2 53 -24 75 -26 92 -9 27 27 10 44 -91 96 -56 29 -106 52 -112
52 -5 -1 -41 -18 -79 -38z"/>
<path d="M5142 3657 c-30 -14 -28 -28 11 -54 40 -28 56 -29 73 -5 13 17 20 61
8 49 -4 -3 -21 0 -38 7 -22 9 -38 10 -54 3z"/>
<path d="M5591 3527 c-43 -22 -43 -22 -15 -25 16 -1 49 2 74 7 31 6 37 9 18
10 -15 1 -28 8 -30 16 -2 12 -11 11 -47 -8z"/>
<path d="M4520 2783 c-22 -15 -22 -17 -5 -30 25 -18 45 -16 61 5 13 16 13 16
14 -1 0 -10 5 -15 10 -12 6 3 10 2 10 -3 0 -6 7 -13 16 -16 18 -7 64 36 64 59
0 21 -140 19 -170 -2z"/>
<path d="M6250 2012 c0 -4 9 -8 20 -9 11 -1 20 2 20 5 0 4 -9 8 -20 9 -11 1
-20 -2 -20 -5z"/>
<path d="M5165 1430 c-11 -5 -37 -9 -57 -9 -69 -2 -101 -28 -113 -92 -13 -74
57 -133 161 -133 50 -1 68 4 102 26 55 37 73 92 49 143 -28 58 -91 87 -142 65z"/>
<path d="M2730 5064 c-244 -117 -260 -126 -260 -150 0 -12 10 -34 22 -50 12
-16 22 -30 23 -32 1 -1 42 18 92 42 100 50 218 87 338 107 l79 12 -64 60 c-36
32 -72 63 -80 67 -11 6 -58 -12 -150 -56z"/>
<path d="M5104 5115 c-4 -9 -4 -27 -2 -40 5 -23 2 -25 -36 -25 -37 0 -48 -7
-119 -76 -42 -41 -75 -79 -72 -85 4 -5 0 -9 -8 -9 -7 0 -24 -11 -36 -24 l-23
-24 42 9 c23 5 46 6 52 3 15 -10 62 -118 83 -194 48 -170 7 -447 -91 -601 -45
-71 -39 -38 11 60 14 28 25 56 25 63 -1 21 -110 85 -171 100 -46 12 -61 12
-87 1 -18 -7 -32 -9 -32 -4 0 5 12 14 28 19 15 6 20 11 12 12 -42 5 -57 7 -77
14 -30 10 -37 -9 -12 -32 11 -11 19 -28 17 -39 -2 -10 8 -36 23 -58 36 -55 66
-131 73 -187 5 -44 -6 -91 -35 -141 -18 -33 -3 -29 72 17 211 128 360 317 421
533 24 86 31 270 15 411 -8 71 -8 73 11 63 13 -7 32 -48 58 -127 l39 -117 3
70 c6 142 -56 356 -116 403 -30 24 -60 26 -68 5z"/>
<path d="M2895 4930 c-98 -22 -138 -37 -131 -49 3 -4 -6 -7 -20 -5 -38 4 -234
-58 -234 -74 0 -12 -60 -128 -101 -196 -37 -61 -32 -67 124 -121 125 -43 130
-42 148 42 7 31 23 71 36 90 35 51 49 125 29 155 -15 23 -16 77 -2 79 27 4
186 -125 186 -150 0 -9 -16 -32 -35 -51 -30 -29 -35 -40 -35 -80 0 -46 -20
-80 -47 -80 -18 0 -34 -27 -47 -77 -11 -43 -16 -49 -54 -63 -34 -12 -48 -26
-75 -70 -26 -45 -38 -56 -62 -58 -17 -2 -50 -19 -74 -38 -24 -19 -48 -34 -53
-34 -5 0 -13 -12 -19 -27 -7 -19 -13 -23 -21 -15 -8 8 -6 15 6 27 15 15 20 29
14 39 -2 2 30 39 71 80 73 75 73 77 55 97 -10 11 -52 36 -93 55 -41 19 -93 49
-115 68 -23 18 -56 41 -73 50 -39 19 -39 21 -13 80 17 40 17 46 4 46 -9 0 -14
7 -12 18 2 9 12 17 23 17 12 0 22 9 26 25 10 35 11 130 1 130 -36 0 -412 -368
-480 -470 -23 -34 -42 -66 -42 -70 0 -4 38 -19 84 -34 46 -14 126 -47 178 -73
75 -37 109 -63 175 -128 63 -63 85 -80 97 -73 32 18 48 -12 22 -41 -13 -14
-12 -24 6 -76 34 -97 36 -214 5 -321 -14 -49 -29 -106 -32 -127 l-7 -38 68 26
c171 64 313 164 505 355 138 137 252 275 349 420 24 36 47 67 51 70 15 10 89
159 123 245 57 148 81 307 55 357 -12 21 -57 44 -131 63 l-47 13 -3 -135 -3
-135 -47 73 c-26 41 -72 104 -103 142 -50 60 -60 67 -92 67 l-36 0 19 -22 19
-23 -26 23 c-14 12 -27 22 -30 21 -2 0 -40 -9 -84 -19z m-737 -305 c22 -6 44
-42 36 -56 -7 -12 -82 13 -101 33 -15 16 -15 21 -3 28 8 5 22 8 30 6 8 -3 25
-7 38 -11z m52 0 c0 -8 -4 -15 -10 -15 -5 0 -10 7 -10 15 0 8 5 15 10 15 6 0
10 -7 10 -15z m974 -197 l27 -43 -30 33 c-27 28 -39 52 -27 52 2 0 15 -19 30
-42z m-224 -27 c0 -14 -18 -23 -31 -15 -8 4 -7 9 2 15 18 11 29 11 29 0z
m-395 -451 c-3 -5 -10 -10 -16 -10 -5 0 -9 5 -9 10 0 6 7 10 16 10 8 0 12 -4
9 -10z"/>
<path d="M6635 4804 c66 -130 152 -334 185 -436 6 -21 16 -38 21 -38 14 0 12
12 -21 115 -67 209 -207 505 -239 505 -16 0 -8 -22 54 -146z"/>
<path d="M6287 4914 c-77 -18 -154 -56 -205 -100 -24 -20 -41 -38 -40 -40 2
-2 24 3 48 10 58 17 101 6 117 -31 11 -23 10 -31 -7 -61 -18 -29 -19 -39 -10
-68 6 -18 9 -38 6 -43 -4 -5 1 -17 10 -25 14 -15 14 -16 -3 -16 -10 0 -69 17
-131 38 l-114 39 -10 -26 c-6 -14 -11 -60 -12 -101 0 -59 4 -84 21 -116 36
-68 43 -69 91 -13 24 27 47 49 51 49 4 0 -12 -20 -36 -45 -24 -25 -43 -52 -43
-59 0 -39 165 -86 299 -86 115 0 278 24 368 55 9 3 8 17 -3 57 -31 105 -108
296 -180 446 l-73 152 -43 -1 c-24 0 -69 -7 -101 -15z m183 -438 c0 -5 -7 -3
-15 4 -8 7 -15 22 -15 34 1 20 2 20 15 -4 8 -14 14 -29 15 -34z"/>
<path d="M4630 4884 c-54 -46 -12 -39 49 7 23 18 23 19 3 19 -11 0 -35 -12
-52 -26z"/>
<path d="M5966 4864 c-127 -37 -144 -44 -105 -44 13 -1 42 -9 64 -20 l40 -18
45 41 c25 23 56 50 70 59 35 24 21 22 -114 -18z"/>
<path d="M7470 4727 c-14 -23 -26 -45 -28 -48 -2 -4 9 -9 23 -12 32 -5 37 6
33 62 l-3 41 -25 -43z"/>
<path d="M7329 4561 l-86 -87 18 -35 c10 -19 37 -89 59 -157 23 -67 46 -120
51 -116 5 3 7 9 4 14 -3 5 -7 42 -9 83 l-2 73 35 -4 c27 -2 32 -1 21 7 -8 6
-23 11 -33 11 -41 0 -3 19 53 25 l60 7 0 105 c0 102 -1 105 -29 134 -16 16
-35 28 -43 28 -7 -1 -52 -41 -99 -88z"/>
<path d="M1270 4594 c0 -8 5 -12 10 -9 6 4 8 11 5 16 -9 14 -15 11 -15 -7z"/>
<path d="M1804 4532 c-45 -32 -120 -88 -168 -127 l-86 -70 72 -3 c70 -3 74 -2
95 25 105 134 174 226 171 228 -2 2 -40 -22 -84 -53z"/>
<path d="M4597 4541 c-69 -18 -112 -49 -159 -115 l-21 -28 21 11 c11 6 24 16
28 22 8 13 146 79 165 79 8 0 25 12 38 25 27 30 20 30 -72 6z"/>
<path d="M4330 4304 c-16 -19 -30 -38 -30 -42 0 -4 14 -20 30 -36 34 -34 35
-40 11 -81 -17 -29 -20 -30 -99 -33 l-81 -3 -39 -47 c-125 -150 -275 -393
-252 -407 6 -4 29 -8 53 -10 23 -2 81 -7 130 -11 50 -4 87 -3 87 2 0 5 -8 23
-19 40 -50 81 -37 90 67 45 37 -16 77 -32 89 -35 l22 -7 -26 57 c-46 102 -19
218 78 331 79 91 85 82 21 -40 -86 -164 -92 -246 -22 -282 26 -13 33 -12 94
15 36 17 74 30 85 30 20 0 61 43 61 64 0 5 -33 43 -74 83 -85 83 -76 97 23 33
52 -34 66 -39 78 -28 21 17 13 102 -17 162 -29 61 -124 163 -189 203 l-50 32
-31 -35z m178 -126 c-2 -15 -11 -24 -25 -26 -27 -4 -29 5 -6 30 22 24 35 23
31 -4z m-438 -259 c0 -5 -7 -9 -15 -9 -15 0 -20 12 -9 23 8 8 24 -1 24 -14z"/>
<path d="M1144 4251 c-30 -18 -54 -64 -54 -103 0 -15 4 -17 18 -9 27 15 132
112 132 122 0 16 -64 10 -96 -10z"/>
<path d="M1400 4232 c-30 -23 -117 -99 -192 -169 l-137 -128 0 -65 c-2 -139
54 -265 164 -375 79 -78 153 -126 251 -161 74 -27 213 -46 252 -34 15 5 21 9
14 9 -21 2 -112 92 -139 139 -94 160 -95 408 -4 682 22 63 35 119 31 124 -5 5
-48 11 -97 13 l-88 5 -55 -40z m50 -426 c0 -3 -4 -8 -10 -11 -5 -3 -10 -1 -10
4 0 6 5 11 10 11 6 0 10 -2 10 -4z m-299 -83 c-9 -16 -10 -16 -11 -1 0 9 3 25
7 35 7 16 8 17 11 1 2 -10 -1 -25 -7 -35z m257 15 c-3 -30 -6 -33 -40 -36 -36
-3 -38 -2 -38 27 0 26 4 30 33 34 17 2 36 5 40 5 5 1 7 -13 5 -30z m-178 -59
c0 -6 -4 -7 -10 -4 -5 3 -10 11 -10 16 0 6 5 7 10 4 6 -3 10 -11 10 -16z m290
10 c0 -5 -3 -9 -7 -9 -5 0 -18 -3 -30 -6 -16 -5 -23 -2 -23 8 0 10 11 15 30
16 17 0 30 -4 30 -9z m-100 -59 c0 -5 -4 -10 -10 -10 -5 0 -10 5 -10 10 0 6 5
10 10 10 6 0 10 -4 10 -10z"/>
<path d="M940 4215 c-284 -79 -538 -199 -767 -364 -69 -49 -85 -83 -64 -141
13 -38 5 -60 -21 -60 -15 0 -18 4 -13 18 11 30 18 112 9 112 -5 0 -26 -16 -46
-35 l-38 -35 0 -608 1 -607 33 85 c186 481 491 954 885 1373 92 97 108 129
136 255 8 39 3 40 -115 7z m-420 -270 c0 -2 -10 -10 -22 -16 -21 -11 -22 -11
-9 4 13 16 31 23 31 12z m210 -70 c0 -9 -52 -56 -58 -51 -6 7 37 56 50 56 4 0
8 -2 8 -5z m-515 -38 c0 -26 -20 -25 -23 2 -3 16 1 22 10 19 7 -3 13 -12 13
-21z m-13 -183 c-4 -19 -23 -37 -30 -29 -3 2 -1 16 2 30 8 30 33 28 28 -1z
m-156 -111 c-11 -11 -17 4 -9 23 7 18 8 18 11 1 2 -10 1 -21 -2 -24z m103
-482 c14 -9 7 -71 -8 -71 -14 0 -91 60 -91 70 0 12 80 13 99 1z"/>
<path d="M1705 4148 c-49 -106 -85 -223 -92 -295 -6 -63 -6 -63 21 -63 22 0
26 -4 26 -30 0 -25 -4 -30 -25 -30 -22 0 -25 -4 -25 -36 0 -34 2 -35 31 -32
36 4 41 -14 7 -23 -30 -7 -27 -42 10 -117 51 -104 153 -167 292 -181 163 -17
237 25 276 156 57 187 4 405 -133 554 -94 101 -186 152 -298 165 l-55 7 -35
-75z m256 -254 c-18 -8 -36 -13 -39 -10 -6 7 37 25 58 25 8 -1 0 -7 -19 -15z
m179 -3 c15 -29 13 -37 -17 -50 -24 -11 -29 -10 -45 9 -24 29 -23 39 5 50 34
14 45 12 57 -9z m-114 -88 c6 -29 3 -32 -30 -43 -45 -14 -56 -8 -56 35 0 27 6
37 28 49 33 18 48 7 58 -41z m-290 38 c-7 -11 -56 -21 -56 -10 0 6 13 11 53
18 5 0 6 -3 3 -8z m170 -26 c8 -32 4 -37 -38 -38 -29 -2 -33 1 -36 25 -3 21 2
27 20 31 44 8 48 7 54 -18z m254 -15 c0 -9 -31 -30 -44 -30 -12 0 -6 28 7 33
20 9 37 8 37 -3z m-377 -56 c3 -20 -1 -27 -20 -35 -46 -17 -65 -12 -61 18 2
19 10 29 28 34 42 12 47 10 53 -17z m147 -38 c0 -7 -10 -16 -22 -20 -36 -9
-48 -7 -48 8 0 16 15 24 48 25 12 1 22 -5 22 -13z"/>
<path d="M7375 4140 c3 -5 8 -10 11 -10 2 0 4 5 4 10 0 6 -5 10 -11 10 -5 0
-7 -4 -4 -10z"/>
<path d="M7438 4126 c-25 -6 -49 -14 -52 -17 -3 -3 0 -28 8 -55 8 -27 17 -74
20 -104 4 -30 16 -104 28 -164 17 -85 19 -115 11 -137 -12 -31 -6 -106 9 -125
5 -7 6 -35 3 -64 -7 -59 0 -90 21 -90 12 0 14 48 14 314 0 242 -3 315 -12 319
-10 4 -10 6 0 6 8 1 12 21 12 66 0 36 -3 64 -7 64 -5 -1 -29 -6 -55 -13z"/>
<path d="M3350 3924 c-71 -72 -320 -296 -419 -376 -203 -164 -358 -239 -597
-288 -101 -21 -112 -26 -147 -62 -20 -21 -53 -62 -72 -91 l-35 -51 53 -13
c127 -32 294 -137 453 -287 l82 -76 144 153 c273 289 269 285 256 307 -16 26
-38 26 -38 0 0 -25 -5 -25 -29 -1 -18 18 -18 19 21 25 22 4 53 13 69 22 16 8
35 12 42 8 7 -4 9 -4 6 -1 -3 4 19 33 49 64 30 32 61 72 68 90 29 66 11 137
-53 214 l-28 34 35 -22 c49 -30 70 -75 70 -153 l1 -65 29 35 c28 32 175 268
208 333 13 26 12 31 -16 75 -17 26 -43 77 -57 115 -15 37 -30 67 -34 67 -4 0
-31 -25 -61 -56z m-210 -316 c-1 -14 -82 -80 -89 -72 -3 2 5 18 17 34 12 16
22 34 22 40 0 5 11 10 25 10 14 0 25 -6 25 -12z m140 -50 c0 -18 -2 -20 -9 -8
-6 8 -7 18 -5 22 9 14 14 9 14 -14z m-191 -131 c0 -21 -1 -21 -9 -2 -12 28
-12 37 0 30 6 -3 10 -16 9 -28z m-694 -235 c-3 -3 -11 0 -18 7 -9 10 -8 11 6
5 10 -3 15 -9 12 -12z m-154 -40 c-22 -32 -111 -108 -111 -95 0 10 112 123
123 123 5 0 -1 -13 -12 -28z m269 -56 c0 -5 -13 3 -30 19 -16 16 -30 33 -30
39 0 5 14 -3 30 -19 17 -16 30 -33 30 -39z m350 50 c0 -3 -4 -8 -10 -11 -5 -3
-10 -1 -10 4 0 6 5 11 10 11 6 0 10 -2 10 -4z m53 -16 c-3 -11 -9 -20 -14 -20
-10 0 -12 24 -2 33 13 13 21 7 16 -13z m57 0 c0 -11 -4 -20 -9 -20 -5 0 -11 9
-14 20 -3 13 0 20 9 20 8 0 14 -9 14 -20z m-404 -85 c8 -19 23 -41 34 -47 12
-8 20 -24 20 -41 0 -18 10 -37 27 -53 21 -19 24 -27 14 -33 -18 -11 -5 -51 22
-73 24 -18 22 -24 -7 -30 -17 -2 -21 7 -32 63 -13 72 -50 153 -96 212 -23 29
-26 37 -13 37 9 0 22 -15 31 -35z m131 -167 c-3 -8 -6 -5 -6 6 -1 11 2 17 5
13 3 -3 4 -12 1 -19z m-35 -153 c3 -13 1 -22 -3 -19 -9 5 -13 44 -5 44 2 0 6
-11 8 -25z"/>
<path d="M879 3733 c-221 -227 -411 -469 -545 -695 -124 -210 -192 -363 -279
-629 l-55 -170 0 -153 0 -154 63 -26 c177 -73 518 -114 792 -95 270 19 600 76
683 118 71 36 70 47 -1 55 -154 15 -292 72 -365 150 -65 69 -87 128 -87 236 0
106 22 169 73 208 33 25 42 27 133 27 83 0 102 -3 125 -21 76 -56 91 -127 50
-243 -50 -144 -28 -217 78 -259 80 -32 215 -33 300 -3 119 42 292 149 472 293
l77 61 -133 63 c-73 35 -131 67 -128 70 3 3 66 -24 139 -60 l133 -65 83 81
c46 45 83 90 83 100 0 62 -94 166 -235 260 -136 91 -233 130 -263 106 -10 -8
-13 -9 -9 -1 24 39 -77 16 -113 -26 -49 -58 -333 -206 -488 -255 -137 -43
-303 -31 -332 25 -30 55 3 132 77 179 118 75 392 140 656 156 107 7 108 7 151
46 24 21 49 51 54 67 12 34 26 30 -168 51 -402 44 -608 126 -751 297 -51 61
-104 171 -127 262 l-19 72 -124 -128z m211 -413 c0 -5 -4 -10 -10 -10 -5 0
-10 5 -10 10 0 6 5 10 10 10 6 0 10 -4 10 -10z m2 -75 c0 -5 -5 -11 -11 -13
-6 -2 -11 4 -11 13 0 9 5 15 11 13 6 -2 11 -8 11 -13z m135 -222 c-8 -7 -37 9
-31 19 3 5 12 4 20 -3 8 -6 13 -14 11 -16z m-820 -25 c-3 -8 -6 -5 -6 6 -1 11
2 17 5 13 3 -3 4 -12 1 -19z m16 -76 c4 -32 2 -50 -3 -47 -6 4 -10 29 -10 57
0 64 5 60 13 -10z m252 -58 c-26 -19 -33 -17 -30 9 3 30 2 29 27 16 21 -11 21
-12 3 -25z m212 -26 c-3 -8 -6 -5 -6 6 -1 11 2 17 5 13 3 -3 4 -12 1 -19z
m-122 -28 c-3 -5 -11 -10 -16 -10 -6 0 -7 5 -4 10 3 6 11 10 16 10 6 0 7 -4 4
-10z m125 0 c0 -5 -9 -10 -21 -10 -11 0 -17 5 -14 10 3 6 13 10 21 10 8 0 14
-4 14 -10z m-225 -40 c3 -5 -1 -10 -10 -10 -9 0 -13 5 -10 10 3 6 8 10 10 10
2 0 7 -4 10 -10z m225 -140 c0 -5 -4 -10 -10 -10 -5 0 -10 5 -10 10 0 6 5 10
10 10 6 0 10 -4 10 -10z m-180 -106 c0 -17 -44 -36 -65 -28 -21 8 -19 20 6 37
24 17 59 11 59 -9z m-80 -256 c0 -13 -5 -30 -10 -38 -7 -11 -10 -5 -10 23 0
20 5 37 10 37 6 0 10 -10 10 -22z m40 -142 c0 -16 -18 -31 -27 -22 -8 8 5 36
17 36 5 0 10 -6 10 -14z"/>
<path d="M6115 3311 c-3 -5 -1 -12 5 -16 12 -7 30 2 30 16 0 12 -27 12 -35 0z"/>
<path d="M5380 3296 c0 -22 11 -46 21 -46 5 0 9 14 9 30 0 20 -5 30 -15 30 -8
0 -15 -6 -15 -14z"/>
<path d="M5995 3300 c-4 -6 5 -10 19 -10 14 0 26 5 26 10 0 6 -9 10 -19 10
-11 0 -23 -4 -26 -10z"/>
<path d="M6220 3300 c0 -5 9 -10 20 -10 11 0 20 5 20 10 0 6 -9 10 -20 10 -11
0 -20 -4 -20 -10z"/>
<path d="M5890 3275 c0 -19 11 -19 36 0 18 14 18 14 -8 15 -18 0 -28 -5 -28
-15z"/>
<path d="M5795 3249 c-4 -6 -5 -13 -2 -16 8 -7 47 7 47 18 0 13 -37 11 -45 -2z"/>
<path d="M6158 3253 c6 -2 18 -2 25 0 6 3 1 5 -13 5 -14 0 -19 -2 -12 -5z"/>
<path d="M5708 3209 c-16 -9 -26 -39 -13 -39 15 0 54 33 49 41 -7 11 -15 11
-36 -2z"/>
<path d="M3087 3174 c-3 -3 -3 -12 0 -20 4 -11 9 -12 19 -3 8 6 11 15 8 20 -6
10 -18 12 -27 3z"/>
<path d="M1710 3000 c-210 -21 -428 -92 -479 -156 -30 -38 -28 -89 5 -111 33
-21 154 -20 251 2 132 31 308 140 386 239 l28 36 -58 -1 c-32 -1 -92 -5 -133
-9z"/>
<path d="M2508 2209 c-65 -32 -118 -61 -118 -63 0 -3 5 -17 10 -31 6 -16 6
-33 1 -43 -5 -9 -11 -37 -15 -61 -3 -24 -13 -52 -21 -61 -12 -14 -14 -29 -9
-68 4 -36 2 -58 -9 -79 -8 -15 -21 -43 -27 -61 -9 -22 -21 -34 -39 -38 -14 -3
-35 -8 -46 -11 -36 -10 -86 -57 -102 -96 -10 -25 -19 -35 -27 -29 -6 5 -30 8
-54 7 -37 -1 -47 3 -69 29 -86 102 -85 232 1 309 68 60 129 74 183 42 40 -23
63 -8 63 40 0 19 3 40 6 49 9 22 47 20 69 -4 20 -22 51 -26 57 -7 5 14 -2 44
-19 72 -11 19 -12 19 -50 1 -125 -60 -578 -207 -813 -265 -328 -80 -551 -106
-834 -98 -198 6 -294 19 -386 52 -49 17 -232 65 -250 65 -8 0 -10 -74 -8 -262
l3 -263 37 -88 c74 -178 201 -330 346 -416 275 -164 708 -192 1089 -70 281 90
558 277 780 529 238 268 364 556 389 889 6 74 4 91 -7 90 -8 0 -67 -27 -131
-60z m-1354 -575 c3 -9 6 -51 6 -95 0 -123 -30 -95 -57 54 -8 44 36 80 51 41z
m-579 -54 c66 -31 125 -88 125 -119 0 -10 7 -24 16 -32 13 -10 17 -10 25 2 5
8 9 22 9 32 0 36 39 95 70 105 17 6 38 18 47 27 36 37 75 -14 86 -112 6 -51 5
-53 -50 -120 -30 -37 -60 -70 -65 -72 -5 -1 -17 4 -27 13 -16 15 -19 15 -36
-4 -22 -24 -35 -26 -35 -5 0 22 -13 18 -41 -11 -44 -47 -53 -48 -104 -2 -34
31 -59 67 -91 134 -48 102 -51 116 -29 134 9 7 14 19 11 25 -4 11 11 35 22 35
2 0 32 -14 67 -30z m205 -320 c0 -4 -17 -15 -37 -23 -21 -9 -55 -23 -75 -31
-30 -13 -38 -14 -38 -3 0 7 30 27 68 44 64 29 82 32 82 13z m-475 -86 c-20
-15 -107 -44 -132 -44 -7 0 -13 4 -13 8 0 9 116 50 145 51 20 0 20 0 0 -15z
m749 -147 c-3 -18 -7 -41 -9 -53 -3 -12 -23 -29 -50 -43 -50 -25 -56 -23 -114
28 l-24 21 34 14 c49 20 100 44 128 61 33 18 41 11 35 -28z"/>
</g>
</svg>
